%YAML 1.1
%TAG !u! tag:unity3d.com,2011:
--- !u!114 &11400000
MonoBehaviour:
  m_ObjectHideFlags: 0
  m_CorrespondingSourceObject: {fileID: 0}
  m_PrefabInstance: {fileID: 0}
  m_PrefabAsset: {fileID: 0}
  m_GameObject: {fileID: 0}
  m_Enabled: 1
  m_EditorHideFlags: 0
  m_Script: {fileID: -1893448595, guid: a040fb66244a7f54289914d98ea4ef7d, type: 3}
  m_Name: Door
  m_EditorClassIdentifier: 
  _data:
    _json: '{"graph":{"variables":{"collection":{"$content":[],"$version":"A"},"$version":"A"},"controlInputDefinitions":[],"controlOutputDefinitions":[],"valueInputDefinitions":[],"valueOutputDefinitions":[],"title":null,"summary":null,"pan":{"x":510.4357,"y":5.820632},"zoom":1.0,"elements":[{"nest":{"source":"Macro","macro":0,"embed":null},"defaultValues":{"tag":{"$content":"Player","$type":"System.String"}},"position":{"x":-337.0,"y":-113.0},"guid":"889a9051-36f9-42e3-9e58-6c570c4cd925","$version":"A","$type":"Bolt.SuperUnit","$id":"9"},{"specifyFallback":false,"kind":"Object","defaultValues":{"name":{"$content":"HasKey","$type":"System.String"},"object":null},"position":{"x":-45.0,"y":-49.0},"guid":"43bebbb3-3c77-4325-9f17-2a918e88aeb3","$version":"A","$type":"Bolt.GetVariable","$id":"12"},{"defaultValues":{},"position":{"x":142.0,"y":-148.0},"guid":"3fe0429f-fdb9-4d62-8afc-9e95355a3e71","$version":"A","$type":"Bolt.Branch","$id":"14"},{"chainable":false,"member":{"name":"enabled","parameterTypes":null,"targetType":"UnityEngine.BoxCollider2D","targetTypeName":"UnityEngine.BoxCollider2D","$version":"A"},"defaultValues":{"target":null,"input":{"$content":false,"$type":"System.Boolean"}},"position":{"x":336.0,"y":-178.0},"guid":"abf4e304-cb22-45d4-865f-62820bb4fe42","$version":"A","$type":"Bolt.SetMember","$id":"16"},{"chainable":false,"member":{"name":"sprite","parameterTypes":null,"targetType":"UnityEngine.SpriteRenderer","targetTypeName":"UnityEngine.SpriteRenderer","$version":"A"},"defaultValues":{"target":null,"input":{"$content":1,"$type":"UnityEngine.Object"}},"position":{"x":550.0,"y":-124.0},"guid":"7f79ba71-bf54-48c4-ab2c-df3453f0e198","$version":"A","$type":"Bolt.SetMember","$id":"19"},{"chainable":false,"member":{"name":"Log","parameterTypes":["System.Object"],"targetType":"UnityEngine.Debug","targetTypeName":"UnityEngine.Debug","$version":"A"},"defaultValues":{},"position":{"x":482.0,"y":29.0},"guid":"54fe1298-eedc-41a2-b738-a36364e7049b","$version":"A","$type":"Bolt.InvokeMember","$id":"22"},{"type":"System.String","value":{"$content":"
      Potrzebujesz klucza !!!","$type":"System.String"},"defaultValues":{},"position":{"x":221.0,"y":69.0},"guid":"755aaa81-a443-4794-ae19-69c070e57228","$version":"A","$type":"Bolt.Literal","$id":"25"},{"sourceUnit":{"$ref":"9"},"sourceKey":"target","destinationUnit":{"$ref":"14"},"destinationKey":"enter","guid":"722cf6ec-e19d-4c43-9fc5-17e74244dd07","$type":"Bolt.ControlConnection"},{"sourceUnit":{"$ref":"14"},"sourceKey":"ifTrue","destinationUnit":{"$ref":"16"},"destinationKey":"assign","guid":"41eb1f1a-a83a-4a43-bfb5-b78f1e12cd1c","$type":"Bolt.ControlConnection"},{"sourceUnit":{"$ref":"16"},"sourceKey":"assigned","destinationUnit":{"$ref":"19"},"destinationKey":"assign","guid":"e9977dbb-41eb-4b80-b95b-33d9abf6d46b","$type":"Bolt.ControlConnection"},{"sourceUnit":{"$ref":"14"},"sourceKey":"ifFalse","destinationUnit":{"$ref":"22"},"destinationKey":"enter","guid":"8ac25179-5194-447b-8733-41ffad1c99cc","$type":"Bolt.ControlConnection"},{"sourceUnit":{"$ref":"9"},"sourceKey":"object","destinationUnit":{"$ref":"12"},"destinationKey":"object","guid":"676e1daf-7e2f-480c-a6b5-1a0671b23161","$type":"Bolt.ValueConnection"},{"sourceUnit":{"$ref":"12"},"sourceKey":"value","destinationUnit":{"$ref":"14"},"destinationKey":"condition","guid":"ff6266ba-66e9-46b9-878e-b0ef1da12c34","$type":"Bolt.ValueConnection"},{"sourceUnit":{"$ref":"25"},"sourceKey":"output","destinationUnit":{"$ref":"22"},"destinationKey":"%message","guid":"76297495-8d9e-4b07-85b0-c9e7f3147fcb","$type":"Bolt.ValueConnection"}],"$version":"A"}}'
    _objectReferences:
    - {fileID: 11400000, guid: 67811ddef32e14c46bd1878675241869, type: 2}
    - {fileID: 21300000, guid: 328cceda81e36744282823c30db2b090, type: 3}
