%YAML 1.1
%TAG !u! tag:unity3d.com,2011:
--- !u!114 &11400000
MonoBehaviour:
  m_ObjectHideFlags: 0
  m_CorrespondingSourceObject: {fileID: 0}
  m_PrefabInstance: {fileID: 0}
  m_PrefabAsset: {fileID: 0}
  m_GameObject: {fileID: 0}
  m_Enabled: 1
  m_EditorHideFlags: 0
  m_Script: {fileID: 1083378141, guid: dcd2196c4e9166f499793f2007fcda35, type: 3}
  m_Name: PlayerHealth
  m_EditorClassIdentifier: 
  _data:
    _json: '{"graph":{"title":null,"summary":null,"pan":{"x":-135.8944,"y":66.54167},"zoom":1.0,"elements":[{"nest":{"source":"Embed","macro":null,"embed":{"variables":{"collection":{"$content":[],"$version":"A"},"$version":"A"},"controlInputDefinitions":[],"controlOutputDefinitions":[],"valueInputDefinitions":[],"valueOutputDefinitions":[],"title":"Vulnerable","summary":"Can
      be hurt and die","pan":{"x":-349.884,"y":-645.9885},"zoom":0.8500001,"elements":[{"argumentCount":1,"coroutine":false,"defaultValues":{"target":null,"name":{"$content":"Damage","$type":"System.String"}},"position":{"x":-822.0,"y":-892.0},"guid":"b017b8d5-71c9-4f40-b4e1-67b09b0db7a0","$version":"A","$type":"Bolt.CustomEvent","$id":"13"},{"specifyFallback":false,"kind":"Object","defaultValues":{"name":{"$content":"Health","$type":"System.String"},"object":null},"position":{"x":-703.0,"y":-625.0},"guid":"e94983f7-21f5-4711-b922-c12029b5586e","$version":"A","$type":"Bolt.GetVariable","$id":"15"},{"chainable":false,"member":{"name":"SetTrigger","parameterTypes":["System.String"],"targetType":"UnityEngine.Animator","targetTypeName":"UnityEngine.Animator","$version":"A"},"defaultValues":{"target":null,"%name":{"$content":"Hurt","$type":"System.String"}},"position":{"x":765.0,"y":-704.0},"guid":"2b597dc0-e4de-4297-9ca8-80ee1d8135cd","$version":"A","$type":"Bolt.InvokeMember","$id":"17"},{"argumentCount":0,"defaultValues":{"name":{"$content":"Death","$type":"System.String"},"target":null},"position":{"x":782.0,"y":-970.0},"guid":"ac7874ff-5094-4b31-a042-2e07d82dad8b","$version":"A","$type":"Bolt.TriggerCustomEvent","$id":"20"},{"type":"System.Int32","value":{"$content":0,"$type":"System.Int32"},"defaultValues":{},"position":{"x":-472.0,"y":-594.0},"guid":"d1eac989-8c7c-4e73-a139-0777edd36c41","$version":"A","$type":"Bolt.Literal","$id":"22"},{"numeric":false,"defaultValues":{},"position":{"x":266.0,"y":-759.0},"guid":"82ab9352-6f6d-46d3-9bae-01b741825a1c","$version":"A","$type":"Bolt.Equal","$id":"24"},{"kind":"Object","defaultValues":{"name":{"$content":"Health","$type":"System.String"},"object":null},"position":{"x":-121.0,"y":-879.0},"guid":"488c170e-7ae6-46fd-91d6-bfe5df790ea3","$version":"A","$type":"Bolt.SetVariable","$id":"26"},{"type":"System.Int32","value":{"$content":0,"$type":"System.Int32"},"defaultValues":{},"position":{"x":116.0,"y":-700.0},"guid":"bcad95c8-5332-4d90-95a9-12322006eb15","$version":"A","$type":"Bolt.Literal","$id":"28"},{"defaultValues":{},"position":{"x":468.0,"y":-875.0},"guid":"3f53929d-6cd0-4158-aeaf-0548bd7403de","$version":"A","$type":"Bolt.Branch","$id":"30"},{"defaultValues":{},"position":{"x":-504.0,"y":-739.0},"guid":"068763d1-a11a-48aa-b79f-6b034818a14c","$version":"A","$type":"Bolt.GenericSubtract","$id":"32"},{"inputCount":2,"defaultValues":{},"position":{"x":-324.0,"y":-788.0},"guid":"3031ada6-4c18-4cb6-b09d-f27c4008b4c5","$version":"A","$type":"Bolt.ScalarMaximum","$id":"34"},{"argumentCount":0,"defaultValues":{"name":{"$content":"Hurt","$type":"System.String"},"target":null},"position":{"x":972.0,"y":-720.0},"guid":"2d9f0683-6385-492c-ad5e-e889ac81c6c1","$version":"A","$type":"Bolt.TriggerCustomEvent","$id":"36"},{"sourceUnit":{"$ref":"13"},"sourceKey":"trigger","destinationUnit":{"$ref":"26"},"destinationKey":"assign","guid":"a97e3aa4-4d95-4f38-bb96-a16bb6a71b0f","$type":"Bolt.ControlConnection"},{"sourceUnit":{"$ref":"26"},"sourceKey":"assigned","destinationUnit":{"$ref":"30"},"destinationKey":"enter","guid":"7b84974e-2d73-4182-a825-8bd66ec6f2c5","$type":"Bolt.ControlConnection"},{"sourceUnit":{"$ref":"30"},"sourceKey":"ifTrue","destinationUnit":{"$ref":"20"},"destinationKey":"enter","guid":"33b27201-d8f8-4737-a96d-dda4111616d5","$type":"Bolt.ControlConnection"},{"sourceUnit":{"$ref":"30"},"sourceKey":"ifFalse","destinationUnit":{"$ref":"17"},"destinationKey":"enter","guid":"e82094c3-962f-42bc-a6e9-9ed316102b8f","$type":"Bolt.ControlConnection"},{"sourceUnit":{"$ref":"17"},"sourceKey":"exit","destinationUnit":{"$ref":"36"},"destinationKey":"enter","guid":"52e672b6-a33b-4c97-9fe2-49e68b7dee4e","$type":"Bolt.ControlConnection"},{"sourceUnit":{"$ref":"24"},"sourceKey":"equal","destinationUnit":{"$ref":"30"},"destinationKey":"condition","guid":"0d666487-fb94-413b-b05d-cc52d4bf4fb9","$type":"Bolt.ValueConnection"},{"sourceUnit":{"$ref":"28"},"sourceKey":"output","destinationUnit":{"$ref":"24"},"destinationKey":"b","guid":"f8b707ab-aa59-4141-b36a-e76cbec22fd6","$type":"Bolt.ValueConnection"},{"sourceUnit":{"$ref":"26"},"sourceKey":"output","destinationUnit":{"$ref":"24"},"destinationKey":"a","guid":"2bc06691-5497-4d9d-ae61-1f5a70c35430","$type":"Bolt.ValueConnection"},{"sourceUnit":{"$ref":"34"},"sourceKey":"maximum","destinationUnit":{"$ref":"26"},"destinationKey":"input","guid":"0d3d4bd2-4058-4a4a-9471-8ea1e4107634","$type":"Bolt.ValueConnection"},{"sourceUnit":{"$ref":"13"},"sourceKey":"argument_0","destinationUnit":{"$ref":"32"},"destinationKey":"subtrahend","guid":"9332df62-c46f-43dd-b3e9-9b1733bef0f6","$type":"Bolt.ValueConnection"},{"sourceUnit":{"$ref":"32"},"sourceKey":"difference","destinationUnit":{"$ref":"34"},"destinationKey":"0","guid":"552c50a3-6f5d-4e59-bed0-40b88aeaac02","$type":"Bolt.ValueConnection"},{"sourceUnit":{"$ref":"15"},"sourceKey":"value","destinationUnit":{"$ref":"32"},"destinationKey":"minuend","guid":"ab8e794e-ae97-4ea6-8015-fd8345159c62","$type":"Bolt.ValueConnection"},{"sourceUnit":{"$ref":"22"},"sourceKey":"output","destinationUnit":{"$ref":"34"},"destinationKey":"1","guid":"416c7d8e-805a-40db-b467-1da6fccf2350","$type":"Bolt.ValueConnection"},{"position":{"xMin":732.2501,"yMin":-1050.75,"xMax":1103.5,"yMax":-788.2499},"label":"Death","comment":null,"color":{"r":0.0,"g":0.0,"b":0.0,"a":1.0},"guid":"0957d5a2-baaa-40e2-ae2e-ceea1abc6795","$version":"A","$type":"Ludiq.GraphGroup"},{"position":{"xMin":-887.9996,"yMin":-974.3331,"xMax":48.66742,"yMax":-422.6663},"label":"Take
      Damage","comment":null,"color":{"r":0.0,"g":0.0,"b":0.0,"a":1.0},"guid":"97885a8e-31b2-4a63-9b4e-d0acad772d04","$version":"A","$type":"Ludiq.GraphGroup"},{"position":{"xMin":729.0,"yMin":-767.0,"xMax":1124.0,"yMax":-494.0},"label":"Hurt","comment":null,"color":{"r":0.0,"g":0.0,"b":0.0,"a":1.0},"guid":"72f52efe-981d-4c01-9cad-a83c19c36c3f","$version":"A","$type":"Ludiq.GraphGroup"},{"position":{"xMin":75.0,"yMin":-964.0,"xMax":612.0,"yMax":-578.0},"label":"Check
      if death","comment":null,"color":{"r":0.0,"g":0.0,"b":0.0,"a":1.0},"guid":"fa5f65aa-7424-4ec8-8bb4-722d82783eae","$version":"A","$type":"Ludiq.GraphGroup"}],"$version":"A"}},"isStart":true,"position":{"x":-293.0,"y":-90.0},"width":170.0,"guid":"01051264-7bc8-4ebb-9601-195fb6a6a9f2","$version":"A","$type":"Bolt.FlowState","$id":"3"},{"nest":{"source":"Embed","macro":null,"embed":{"variables":{"collection":{"$content":[],"$version":"A"},"$version":"A"},"controlInputDefinitions":[],"controlOutputDefinitions":[],"valueInputDefinitions":[],"valueOutputDefinitions":[],"title":"Invulnerable","summary":"Canot
      take damage ","pan":{"x":160.5315,"y":-4.443466},"zoom":0.9,"elements":[{"coroutine":false,"defaultValues":{},"position":{"x":-205.0,"y":-215.0},"guid":"24e717f5-a8f6-42b3-a96c-89d5c856aa89","$version":"A","$type":"Bolt.OnEnterState","$id":"65"},{"coroutine":false,"defaultValues":{},"position":{"x":-168.0,"y":115.0},"guid":"f3f9b379-78c8-41ee-a9a6-40532c4e6a0b","$version":"A","$type":"Bolt.OnExitState","$id":"67"},{"chainable":false,"member":{"name":"layer","parameterTypes":null,"targetType":"UnityEngine.GameObject","targetTypeName":"UnityEngine.GameObject","$version":"A"},"defaultValues":{"target":null,"input":{"$content":0,"$type":"System.Int32"}},"position":{"x":110.0,"y":-92.0},"guid":"8ffb5b96-bf9e-4e0a-8e5f-07873acd0e4f","$version":"A","$type":"Bolt.SetMember","$id":"69"},{"chainable":false,"member":{"name":"NameToLayer","parameterTypes":["System.String"],"targetType":"UnityEngine.LayerMask","targetTypeName":"UnityEngine.LayerMask","$version":"A"},"defaultValues":{"%layerName":{"$content":"PlayerInvincible
      ","$type":"System.String"}},"position":{"x":-204.0,"y":-43.0},"guid":"31662fe1-e188-49f3-9250-de2a2188ba79","$version":"A","$type":"Bolt.InvokeMember","$id":"72"},{"chainable":false,"member":{"name":"layer","parameterTypes":null,"targetType":"UnityEngine.GameObject","targetTypeName":"UnityEngine.GameObject","$version":"A"},"defaultValues":{"target":null,"input":{"$content":0,"$type":"System.Int32"}},"position":{"x":125.0,"y":148.0},"guid":"64b4236e-abeb-406c-a2f2-013857e0f4c8","$version":"A","$type":"Bolt.SetMember","$id":"75"},{"chainable":false,"member":{"name":"NameToLayer","parameterTypes":["System.String"],"targetType":"UnityEngine.LayerMask","targetTypeName":"UnityEngine.LayerMask","$version":"A"},"defaultValues":{"%layerName":{"$content":"Player","$type":"System.String"}},"position":{"x":-196.0,"y":270.0},"guid":"0495096d-da77-4602-be8a-34dd5b84f49c","$version":"A","$type":"Bolt.InvokeMember","$id":"78"},{"coroutine":false,"defaultValues":{},"position":{"x":338.0,"y":203.0},"guid":"61837f3e-7a90-4fe3-b932-2bb732031c9a","$version":"A","$type":"Bolt.Update"},{"sourceUnit":{"$ref":"65"},"sourceKey":"trigger","destinationUnit":{"$ref":"69"},"destinationKey":"assign","guid":"80379e56-a662-4648-bf7a-b5e5ef86350b","$type":"Bolt.ControlConnection"},{"sourceUnit":{"$ref":"67"},"sourceKey":"trigger","destinationUnit":{"$ref":"75"},"destinationKey":"assign","guid":"bbf70cee-b842-47fb-9501-f2c7f6467608","$type":"Bolt.ControlConnection"},{"sourceUnit":{"$ref":"72"},"sourceKey":"result","destinationUnit":{"$ref":"69"},"destinationKey":"input","guid":"783102bf-8789-41a9-95aa-a11a1d778da0","$type":"Bolt.ValueConnection"},{"sourceUnit":{"$ref":"78"},"sourceKey":"result","destinationUnit":{"$ref":"75"},"destinationKey":"input","guid":"e9f51940-5a5a-4b53-a418-3e2142250592","$type":"Bolt.ValueConnection"}],"$version":"A"}},"isStart":false,"position":{"x":-289.0,"y":135.0},"width":170.0,"guid":"1d0d990c-865d-4d87-90d9-dbdebb2e99f6","$version":"A","$type":"Bolt.FlowState","$id":"55"},{"nest":{"source":"Embed","macro":null,"embed":{"variables":{"collection":{"$content":[],"$version":"A"},"$version":"A"},"controlInputDefinitions":[],"controlOutputDefinitions":[],"valueInputDefinitions":[],"valueOutputDefinitions":[],"title":null,"summary":null,"pan":{"x":0.0,"y":0.0},"zoom":1.0,"elements":[{"defaultValues":{},"position":{"x":78.0,"y":-91.0},"guid":"3db64a5b-cc9b-4715-b427-e64bea04684f","$version":"A","$type":"Bolt.TriggerStateTransition","$id":"97"},{"argumentCount":0,"coroutine":false,"defaultValues":{"target":null,"name":{"$content":"Hurt","$type":"System.String"}},"position":{"x":-181.0,"y":-81.0},"guid":"ecc5e0c1-8dbd-434e-8507-7dee3cf5a23b","$version":"A","$type":"Bolt.CustomEvent","$id":"99"},{"sourceUnit":{"$ref":"99"},"sourceKey":"trigger","destinationUnit":{"$ref":"97"},"destinationKey":"trigger","guid":"a413fe8c-4055-4621-a0d1-93106b0e136f","$type":"Bolt.ControlConnection"}],"$version":"A"}},"source":{"$ref":"3"},"destination":{"$ref":"55"},"guid":"67a970da-25d0-4815-b40b-9d4988e3e299","$version":"A","$type":"Bolt.FlowStateTransition"},{"nest":{"source":"Embed","macro":null,"embed":{"variables":{"collection":{"$content":[],"$version":"A"},"$version":"A"},"controlInputDefinitions":[],"controlOutputDefinitions":[],"valueInputDefinitions":[],"valueOutputDefinitions":[],"title":null,"summary":null,"pan":{"x":-133.5,"y":43.2047},"zoom":1.0,"elements":[{"defaultValues":{},"position":{"x":100.0,"y":-62.0},"guid":"19f2f7a2-de55-4d19-9f0f-1274439e3e4c","$version":"A","$type":"Bolt.TriggerStateTransition","$id":"112"},{"defaultValues":{"seconds":{"$content":1.0,"$type":"System.Single"},"unscaledTime":{"$content":false,"$type":"System.Boolean"}},"position":{"x":-227.0,"y":-59.0},"guid":"d98f92d3-a090-4f91-b949-5fc223224ed3","$version":"A","$type":"Bolt.WaitForSecondsUnit","$id":"114"},{"coroutine":true,"defaultValues":{},"position":{"x":-501.0,"y":-50.0},"guid":"209e067b-8a02-4c2c-83e1-85fe3c64b51e","$version":"A","$type":"Bolt.OnEnterState","$id":"116"},{"sourceUnit":{"$ref":"114"},"sourceKey":"exit","destinationUnit":{"$ref":"112"},"destinationKey":"trigger","guid":"e4fddc23-f36a-4fbc-8385-757961d112d3","$type":"Bolt.ControlConnection"},{"sourceUnit":{"$ref":"116"},"sourceKey":"trigger","destinationUnit":{"$ref":"114"},"destinationKey":"enter","guid":"523e8e77-dfe2-49eb-ad13-65f05c46a792","$type":"Bolt.ControlConnection"}],"$version":"A"}},"source":{"$ref":"55"},"destination":{"$ref":"3"},"guid":"4e41719d-ac34-42ad-8bc1-ccc010614344","$version":"A","$type":"Bolt.FlowStateTransition"}],"$version":"A"}}'
    _objectReferences: []
