%YAML 1.1
%TAG !u! tag:unity3d.com,2011:
--- !u!114 &11400000
MonoBehaviour:
  m_ObjectHideFlags: 0
  m_CorrespondingSourceObject: {fileID: 0}
  m_PrefabInstance: {fileID: 0}
  m_PrefabAsset: {fileID: 0}
  m_GameObject: {fileID: 0}
  m_Enabled: 1
  m_EditorHideFlags: 0
  m_Script: {fileID: -1893448595, guid: a040fb66244a7f54289914d98ea4ef7d, type: 3}
  m_Name: Spikes
  m_EditorClassIdentifier: 
  _data:
    _json: '{"graph":{"variables":{"collection":{"$content":[],"$version":"A"},"$version":"A"},"controlInputDefinitions":[],"controlOutputDefinitions":[],"valueInputDefinitions":[],"valueOutputDefinitions":[],"title":null,"summary":null,"pan":{"x":-422.5,"y":-301.0},"zoom":1.0,"elements":[{"argumentCount":0,"defaultValues":{"name":{"$content":"Death","$type":"System.String"},"target":null},"position":{"x":-6.0,"y":-396.0},"guid":"b8cb6762-a83f-43c6-a706-c791e1461067","$version":"A","$type":"Bolt.TriggerCustomEvent","$id":"9"},{"nest":{"source":"Macro","macro":0,"embed":null},"defaultValues":{"tag":{"$content":"Player","$type":"System.String"}},"position":{"x":-506.0,"y":-361.0},"guid":"df4b7541-c907-460b-b457-0b5cbc5130e8","$version":"A","$type":"Bolt.SuperUnit","$id":"11"},{"sourceUnit":{"$ref":"11"},"sourceKey":"target","destinationUnit":{"$ref":"9"},"destinationKey":"enter","guid":"c260ce38-0407-4423-93a3-5ec70c93e473","$type":"Bolt.ControlConnection"},{"sourceUnit":{"$ref":"11"},"sourceKey":"object","destinationUnit":{"$ref":"9"},"destinationKey":"target","guid":"c5a61cf1-8355-4921-ba2b-84e622b74045","$type":"Bolt.ValueConnection"}],"$version":"A"}}'
    _objectReferences:
    - {fileID: 11400000, guid: 67811ddef32e14c46bd1878675241869, type: 2}
